{
  "extends": [
    "tslint:latest",
    "tslint-react",
    "tslint-config-prettier",
    "tslint-no-circular-imports"
  ],
  "linterOptions": {
    "exclude": ["node_modules", "dist"]
  },
  "rules": {
    "quotemark": [true, "double", "jsx-double", "avoid-escape"],
    "semicolon": [true, "never"],
    "member-access": [false],
    "member-ordering": [false],
    "no-empty": false,
    "no-submodule-imports": false,
    "no-implicit-dependencies": false,
    "no-constant-condition": false,
    "triple-equals": [true, "allow-undefined-check"],
    "no-duplicate-imports": true,
    "no-shadowed-variable": false,
    "no-object-literal-type-assertion": false,
    "ordered-imports": false,
    "array-type": [true, "generic"],
    "class-name": true,
    "curly": false,
    "deprecation": true,
    "indent": [true, "spaces", 2],
    "interface-name": false,
    "import-spacing": true,
    "max-classes-per-file": [true, 1],
    "max-file-line-count": [true, 500],
    "no-construct": true,
    "no-empty-interface": false,
    "no-magic-numbers": true,
    "no-parameter-reassignment": true,
    "no-string-literal": true,
    "no-unused-expression": true,
    "no-use-before-declare": true,
    "no-var-keyword": true,
    "prefer-const": true,
    "prefer-for-of": true,
    "prefer-object-spread": true,
    "prefer-switch": true,
    "prefer-template": true,
    "object-literal-sort-keys": false,
    "arrow-return-shorthand": true,
    "arrow-parens": true,
    "only-arrow-functions": true,
    //tslint-react
    "jsx-alignment": true,
    "jsx-boolean-value": "never",
    "jsx-key": true,
    "jsx-space-before-trailing-slash": true,
    "jsx-wrap-multiline": true
  }
}
